module kraftkit.sh

go 1.20

require (
	api.zip v0.1.5
	github.com/AlecAivazis/survey/v2 v2.3.7
	github.com/MakeNowJust/heredoc v1.0.0
	github.com/Masterminds/semver/v3 v3.2.1
	github.com/acorn-io/baaah v0.0.0-20230522221318-afcc93619e30
	github.com/barkimedes/go-deepcopy v0.0.0-20220514131651-17c30cfc62df
	github.com/briandowns/spinner v1.23.0
	github.com/cavaliergopher/cpio v1.0.1
	github.com/charmbracelet/bubbles v0.15.0
	github.com/charmbracelet/bubbletea v0.23.3-0.20230316100943-248eb83001a7
	github.com/charmbracelet/lipgloss v0.7.1
	github.com/cli/cli/v2 v2.32.0
	github.com/cli/go-gh v1.2.1
	github.com/cli/safeexec v1.0.1
	github.com/compose-spec/compose-go v1.17.0
	github.com/containerd/containerd v1.7.2
	github.com/containerd/nerdctl v1.4.0
	github.com/cyphar/filepath-securejoin v0.2.4
	github.com/dgraph-io/badger/v3 v3.2103.5
	github.com/docker/cli v24.0.1+incompatible
	github.com/docker/docker v24.0.4+incompatible
	github.com/dustin/go-humanize v1.0.1
	github.com/erikgeiser/promptkit v0.8.0
	github.com/erikh/ping v0.0.0-20141209185752-d731d249e12a
	github.com/firecracker-microvm/firecracker-go-sdk v1.0.0
	github.com/fsnotify/fsnotify v1.6.0
	github.com/genuinetools/reg v0.16.1
	github.com/go-git/go-git/v5 v5.8.1
	github.com/gobwas/glob v0.2.3
	github.com/google/go-containerregistry v0.15.2
	github.com/google/go-github/v32 v32.1.0
	github.com/google/shlex v0.0.0-20191202100458-e7afc7fbc510
	github.com/henvic/httpretty v0.1.2
	github.com/kubescape/go-git-url v0.0.25
	github.com/mattn/go-colorable v0.1.13
	github.com/mattn/go-isatty v0.0.19
	github.com/mattn/go-shellwords v1.0.12
	github.com/mgutz/ansi v0.0.0-20200706080929-d51e80ef957d
	github.com/mitchellh/go-homedir v1.1.0
	github.com/mitchellh/mapstructure v1.5.0
	github.com/muesli/reflow v0.3.0
	github.com/muesli/termenv v0.15.2
	github.com/onsi/ginkgo/v2 v2.11.0
	github.com/onsi/gomega v1.27.10
	github.com/opencontainers/go-digest v1.0.0
	github.com/opencontainers/image-spec v1.1.0-rc4
	github.com/opencontainers/runc v1.1.7
	github.com/opencontainers/runtime-spec v1.1.0-rc.2
	github.com/opencontainers/selinux v1.11.0
	github.com/pkg/errors v0.9.1
	github.com/rancher/wrangler v1.0.2
	github.com/shirou/gopsutil/v3 v3.23.6
	github.com/sirupsen/logrus v1.9.3
	github.com/spf13/cobra v1.7.0
	github.com/spf13/pflag v1.0.5
	github.com/stretchr/testify v1.8.4
	github.com/vishvananda/netlink v1.2.1-beta.2
	github.com/xeipuuv/gojsonschema v1.2.0
	github.com/xlab/treeprint v1.2.0
	golang.org/x/oauth2 v0.10.0
	golang.org/x/sync v0.3.0
	golang.org/x/sys v0.10.0
	golang.org/x/term v0.10.0
	gopkg.in/yaml.v2 v2.4.0
	gopkg.in/yaml.v3 v3.0.1
	k8s.io/api v0.27.3
	k8s.io/apimachinery v0.27.4
	k8s.io/apiserver v0.27.3
	oras.land/oras-go/v2 v2.2.1
	sigs.k8s.io/kustomize/kyaml v0.14.3
)

replace github.com/vishvananda/netlink => github.com/craciunoiuc/netlink v1.2.1-beta.2

require (
	dario.cat/mergo v1.0.0 // indirect
	github.com/AdaLogics/go-fuzz-headers v0.0.0-20230106234847-43070de90fa1 // indirect
	github.com/AdamKorcz/go-118-fuzz-build v0.0.0-20221215162035-5330a85ea652 // indirect
	github.com/Microsoft/go-winio v0.6.1 // indirect
	github.com/Microsoft/hcsshim v0.10.0-rc.8 // indirect
	github.com/ProtonMail/go-crypto v0.0.0-20230717121422-5aa5874ade95 // indirect
	github.com/acomagu/bufpipe v1.0.4 // indirect
	github.com/asaskevich/govalidator v0.0.0-20230301143203-a9d515a09cc2 // indirect
	github.com/atotto/clipboard v0.1.4 // indirect
	github.com/aymanbagabas/go-osc52/v2 v2.0.1 // indirect
	github.com/cespare/xxhash v1.1.0 // indirect
	github.com/cespare/xxhash/v2 v2.2.0 // indirect
	github.com/charmbracelet/harmonica v0.2.0 // indirect
	github.com/cli/go-gh/v2 v2.0.1 // indirect
	github.com/cloudflare/circl v1.3.3 // indirect
	github.com/containerd/cgroups v1.1.0 // indirect
	github.com/containerd/console v1.0.4-0.20230313162750-1ae8d489ac81 // indirect
	github.com/containerd/continuity v0.4.1 // indirect
	github.com/containerd/fifo v1.1.0 // indirect
	github.com/containerd/go-cni v1.1.9 // indirect
	github.com/containerd/stargz-snapshotter/estargz v0.14.3 // indirect
	github.com/containerd/ttrpc v1.2.2 // indirect
	github.com/containerd/typeurl/v2 v2.1.1 // indirect
	github.com/containernetworking/cni v1.1.2 // indirect
	github.com/containernetworking/plugins v1.3.0 // indirect
	github.com/coreos/go-iptables v0.6.0 // indirect
	github.com/davecgh/go-spew v1.1.1 // indirect
	github.com/dgraph-io/ristretto v0.1.1 // indirect
	github.com/docker/distribution v2.8.2+incompatible // indirect
	github.com/docker/docker-credential-helpers v0.7.0 // indirect
	github.com/docker/go-connections v0.4.0 // indirect
	github.com/docker/go-events v0.0.0-20190806004212-e31b211e4f1c // indirect
	github.com/docker/go-units v0.5.0 // indirect
	github.com/docker/libtrust v0.0.0-20160708172513-aabc10ec26b7 // indirect
	github.com/emirpasic/gods v1.18.1 // indirect
	github.com/fatih/color v1.15.0 // indirect
	github.com/go-errors/errors v1.4.2 // indirect
	github.com/go-git/gcfg v1.5.1-0.20230307220236-3a3c6141e376 // indirect
	github.com/go-git/go-billy/v5 v5.4.1 // indirect
	github.com/go-logr/logr v1.2.4 // indirect
	github.com/go-logr/stdr v1.2.2 // indirect
	github.com/go-ole/go-ole v1.2.6 // indirect
	github.com/go-openapi/analysis v0.21.2 // indirect
	github.com/go-openapi/errors v0.20.2 // indirect
	github.com/go-openapi/jsonpointer v0.19.6 // indirect
	github.com/go-openapi/jsonreference v0.20.2 // indirect
	github.com/go-openapi/loads v0.21.1 // indirect
	github.com/go-openapi/runtime v0.24.0 // indirect
	github.com/go-openapi/spec v0.20.4 // indirect
	github.com/go-openapi/strfmt v0.21.2 // indirect
	github.com/go-openapi/swag v0.22.3 // indirect
	github.com/go-openapi/validate v0.22.0 // indirect
	github.com/go-stack/stack v1.8.1 // indirect
	github.com/go-task/slim-sprig v0.0.0-20230315185526-52ccab3ef572 // indirect
	github.com/gogo/protobuf v1.3.2 // indirect
	github.com/golang/glog v1.0.0 // indirect
	github.com/golang/groupcache v0.0.0-20210331224755-41bb18bfe9da // indirect
	github.com/golang/protobuf v1.5.3 // indirect
	github.com/golang/snappy v0.0.4 // indirect
	github.com/google/flatbuffers v23.1.21+incompatible // indirect
	github.com/google/gnostic-models v0.6.8 // indirect
	github.com/google/go-cmp v0.5.9 // indirect
	github.com/google/go-querystring v1.1.0 // indirect
	github.com/google/gofuzz v1.2.0 // indirect
	github.com/google/pprof v0.0.0-20230323073829-e72429f035bd // indirect
	github.com/google/uuid v1.3.0 // indirect
	github.com/hashicorp/errwrap v1.1.0 // indirect
	github.com/hashicorp/go-multierror v1.1.1 // indirect
	github.com/inconshreveable/mousetrap v1.1.0 // indirect
	github.com/jbenet/go-context v0.0.0-20150711004518-d14ea06fba99 // indirect
	github.com/josharian/intern v1.0.0 // indirect
	github.com/json-iterator/go v1.1.12 // indirect
	github.com/kevinburke/ssh_config v1.2.0 // indirect
	github.com/klauspost/compress v1.16.5 // indirect
	github.com/lucasb-eyer/go-colorful v1.2.0 // indirect
	github.com/lufia/plan9stats v0.0.0-20230110061619-bbe2e5e100de // indirect
	github.com/mailru/easyjson v0.7.7 // indirect
	github.com/mattn/go-localereader v0.0.1 // indirect
	github.com/mattn/go-runewidth v0.0.14 // indirect
	github.com/moby/locker v1.0.1 // indirect
	github.com/moby/sys/mountinfo v0.6.2 // indirect
	github.com/moby/sys/sequential v0.5.0 // indirect
	github.com/moby/sys/signal v0.7.0 // indirect
	github.com/modern-go/concurrent v0.0.0-20180306012644-bacd9c7ef1dd // indirect
	github.com/modern-go/reflect2 v1.0.2 // indirect
	github.com/muesli/ansi v0.0.0-20221106050444-61f0cd9a192a // indirect
	github.com/muesli/cancelreader v0.2.2 // indirect
	github.com/oklog/ulid v1.3.1 // indirect
	github.com/opentracing/opentracing-go v1.2.0 // indirect
	github.com/pelletier/go-toml v1.9.5 // indirect
	github.com/peterhellberg/link v1.0.0 // indirect
	github.com/pjbgf/sha1cd v0.3.0 // indirect
	github.com/pmezard/go-difflib v1.0.0 // indirect
	github.com/power-devops/perfstat v0.0.0-20221212215047-62379fc7944b // indirect
	github.com/rivo/uniseg v0.4.4 // indirect
	github.com/rootless-containers/rootlesskit v1.1.0 // indirect
	github.com/sergi/go-diff v1.3.1 // indirect
	github.com/shoenig/go-m1cpu v0.1.6 // indirect
	github.com/skeema/knownhosts v1.2.0 // indirect
	github.com/tklauser/go-sysconf v0.3.11 // indirect
	github.com/tklauser/numcpus v0.6.0 // indirect
	github.com/vbatts/tar-split v0.11.3 // indirect
	github.com/vishvananda/netns v0.0.4 // indirect
	github.com/whilp/git-urls v1.0.0 // indirect
	github.com/xanzy/ssh-agent v0.3.3 // indirect
	github.com/xeipuuv/gojsonpointer v0.0.0-20190905194746-02993c407bfb // indirect
	github.com/xeipuuv/gojsonreference v0.0.0-20180127040603-bd5ef7bd5415 // indirect
	github.com/yusufpapurcu/wmi v1.2.3 // indirect
	go.mongodb.org/mongo-driver v1.8.3 // indirect
	go.opencensus.io v0.24.0 // indirect
	go.opentelemetry.io/otel v1.14.0 // indirect
	go.opentelemetry.io/otel/trace v1.14.0 // indirect
	golang.org/x/crypto v0.11.0 // indirect
	golang.org/x/mod v0.10.0 // indirect
	golang.org/x/net v0.12.0 // indirect
	golang.org/x/text v0.11.0 // indirect
	golang.org/x/tools v0.9.3 // indirect
	google.golang.org/appengine v1.6.7 // indirect
	google.golang.org/genproto v0.0.0-20230306155012-7f2fa6fef1f4 // indirect
	google.golang.org/grpc v1.53.0 // indirect
	google.golang.org/protobuf v1.31.0 // indirect
	gopkg.in/inf.v0 v0.9.1 // indirect
	gopkg.in/warnings.v0 v0.1.2 // indirect
	k8s.io/klog/v2 v2.90.1 // indirect
	k8s.io/kube-openapi v0.0.0-20230601164746-7562a1006961 // indirect
	k8s.io/utils v0.0.0-20230505201702-9f6742963106 // indirect
	sigs.k8s.io/json v0.0.0-20221116044647-bc3834ca7abd // indirect
	sigs.k8s.io/structured-merge-diff/v4 v4.2.3 // indirect
	sigs.k8s.io/yaml v1.3.0 // indirect
)
